{
"RECORDS" :
[
{
"rut": '11.111.111-1',
"nombre": 'Médico 1',
"apellido_pat": 'Apellido paterno',
"apellido_mat": 'Apellido Materno',
"fecha_nacimiento": "2018-02-1988",
"telefono": "0987654321",
"domicilio": "chillán, av por ahí",
"ciudad": "Coihaique",
"especialidades": "Coihaique",
"prevision": "Coihaique",
},

]
}